Tuning Cubist Models • Cubist
…
The results can be sown as a table or a plot:

collect_metrics(tm_grid)

## # A tibble: 32 x 8
##    committees neighbors .metric .estimator    mean     n  std_err .config       
##         <dbl>     <dbl> <chr>   <chr>        <dbl> <int>    <dbl> <chr>         
##  1          1         0 rmse    standard   0.00700    10 0.000425 Preprocessor1…
##  2          1         0 rsq     standard   0.778      10 0.0224   Preprocessor1…
##  3          1         1 rmse    standard   0.00776    10 0.000404 Preprocessor1…
##  4          1         1 rsq     standard   0.744      10 0.0202   Preprocessor1…
##  5          1         5 rmse    standard   0.00668    10 0.000403 Preprocessor1…
##  6          1         5 rsq     standard   0.799      10 0.0210   Preprocessor1…
##  7          1         9 rmse    standard   0.00666    10 0.000410 Preprocessor1…
##  8          1         9 rsq     standard   0.800      10 0.0213   Preprocessor1…
##  9         10         0 rmse    standard   0.00625    10 0.000371 Preprocessor1…
## 10         10         0 rsq     standard   0.823      10 0.0198   Preprocessor1…
## # … with 22 more rows
…
# test set results:
collect_metrics(cubist_results)

## # A tibble: 2 x 4
##   .metric .estimator .estimate .config             
##   <chr>   <chr>          <dbl> <chr>               
## 1 rmse    standard     0.00576 Preprocessor1_Model1
## 2 rsq     standard     0.857   Preprocessor1_Model1

# test set predictions:
collect_predictions(cubist_results)

## # A tibble: 733 x 5
##    id               .pred  .row Sale_Price .config             
##    <chr>            <dbl> <int>      <dbl> <chr>               
##  1 train/test split 0.723     5      0.723 Preprocessor1_Model1
##  2 train/test split 0.725    10      0.722 Preprocessor1_Model1
##  3 train/test split 0.720    11      0.720 Preprocessor1_Model1
##  4 train/test split 0.760    16      0.758 Preprocessor1_Model1
##  5 train/test split 0.744    18      0.748 Preprocessor1_Model1
##  6 train/test split 0.730    20      0.726 Preprocessor1_Model1
##  7 train/test split 0.726    23      0.727 Preprocessor1_Model1
##  8 train/test split 0.708    27      0.708 Preprocessor1_Model1
##  9 train/test split 0.712    34      0.714 Preprocessor1_Model1
## 10 train/test split 0.744    37      0.746 Preprocessor1_Model1
## # … with 723 more rows
…
