Cubist Regresion Models • Cubist
…
rule_expr  <- char_to_expr(tr, 7, model = FALSE)
model_expr <- char_to_expr(tr, 7, model = TRUE)

# filter the data corresponding to rule 7
attrition %>% 
  dplyr::filter(eval_tidy(rule_expr, attrition)) %>%
  # evaluate the estimated MonthlyIncome
  dplyr::mutate(MonthlyIncome_est = eval_tidy(model_expr, .)) %>%
  dplyr::select(MonthlyIncome, MonthlyIncome_est)

## # A tibble: 87 x 2
##    MonthlyIncome MonthlyIncome_est
##            <int>             <dbl>
##  1         15427            16573.
##  2         13458            13642.
##  3         14756            16552.
##  4         13245            13367.
##  5         13664            13439.
##  6         13549            13061.
##  7         17328            16640.
##  8         16959            16831.
##  9         17181            16950.
## 10         16792            16774.
## # … with 77 more rows
…
