Cubist Regresion Models • Cubist
…
rule_expr  <- char_to_expr(tr, 7, model = FALSE)
model_expr <- char_to_expr(tr, 7, model = TRUE)

# filter the data corresponding to rule 7
ames %>% 
  dplyr::filter(eval_tidy(rule_expr, ames)) %>%
  dplyr::mutate(sale_price_pred = eval_tidy(model_expr, .)) %>%
  dplyr::select(Sale_Price, sale_price_pred)

## # A tibble: 59 × 2
##    Sale_Price sale_price_pred
##         <dbl>           <dbl>
##  1      0.703           0.707
##  2      0.693           0.712
##  3      0.715           0.715
##  4      0.710           0.714
##  5      0.711           0.712
##  6      0.716           0.716
##  7      0.727           0.713
##  8      0.719           0.719
##  9      0.711           0.709
## 10      0.716           0.722
## # … with 49 more rows
…
